000000000000000
000000000000000
110011101101111
111011001110100
110010101100011
110100000101101
110001101110011
110011101111011
100001101010100
110011001011111
100100101010010
101111101001110
100010101000011
101111100110010
011000001000000
011000000100001
101111101111101